{
	"content": [
		{
			"id": 64,
			"receiver": {
				"id": 4,
				"firstName": "Akash",
				"lastName": "Debnath",
				"phone": "01303544534",
				"email": "akash@gmail.com",
				"image": "14c2da08ef49c793a931b895af27c6e5b55b9640_.jpg",
				"password": "$2a$10$rqczeQ7OfgDbG8Glqa90eO80GbnylTVpM3EWfPTSTbFwjVqcdragO",
				"remark": null,
				"role": "User",
				"addedBy": {
					"id": 1,
					"firstName": "Admin",
					"lastName": "Admin",
					"phone": null,
					"email": "admin@gmail.com",
					"image": "AdminImage.jpg",
					"password": "$2a$10$KhhFWSgHW2Y/q1NiEteeIefz2U5ct3Y5qvVAZBFjIjXWumnBRYqCm",
					"remark": null,
					"role": "Admin",
					"addedBy": null
				}
			},
			"sender": null,
			"environment": {
				"id": 1,
				"plantName": "Wheat",
				"ownedBy": null,
				"location": {
					"id": 1,
					"locationName": "Location A",
					"fullAddress": "Sirajganj, enayetpur, kyau, building - 312",
					"length": 10.0,
					"width": 10.0,
					"note": "Beside the door\r\n",
					"available": false
				},
				"plantDate": "2023-12-29T18:00:00.000+00:00",
				"maturityDate": "2023-12-30T18:00:00.000+00:00",
				"lightDuration": 8,
				"waterPH": 5.5,
				"temperatureC": 25.0,
				"humidity": 8.0,
				"minerals": [
					{
						"id": 1,
						"mineralName": "Nitrogen",
						"mineralUnit": "gram",
						"mineralAmount": 1.0
					},
					{
						"id": 2,
						"mineralName": "Oxygen",
						"mineralUnit": "gram",
						"mineralAmount": 3.0
					},
					{
						"id": 3,
						"mineralName": "Iron",
						"mineralUnit": "gram",
						"mineralAmount": 5.0
					}
				],
				"addedEnvironmentBy": null
			},
			"message": "Error in Oxygen. Actual value is: 1.0 The value should be within 1.04 and 0.96",
			"notificationType": "INVALID_MINERAL_ERROR",
			"status": "UNREAD",
			"timestamp": "2024-01-09T13:17:18.000+00:00"
		},
		{
			"id": 63,
			"receiver": {
				"id": 4,
				"firstName": "Akash",
				"lastName": "Debnath",
				"phone": "01303544534",
				"email": "akash@gmail.com",
				"image": "14c2da08ef49c793a931b895af27c6e5b55b9640_.jpg",
				"password": "$2a$10$rqczeQ7OfgDbG8Glqa90eO80GbnylTVpM3EWfPTSTbFwjVqcdragO",
				"remark": null,
				"role": "User",
				"addedBy": {
					"id": 1,
					"firstName": "Admin",
					"lastName": "Admin",
					"phone": null,
					"email": "admin@gmail.com",
					"image": "AdminImage.jpg",
					"password": "$2a$10$KhhFWSgHW2Y/q1NiEteeIefz2U5ct3Y5qvVAZBFjIjXWumnBRYqCm",
					"remark": null,
					"role": "Admin",
					"addedBy": null
				}
			},
			"sender": null,
			"environment": {
				"id": 1,
				"plantName": "Wheat",
				"ownedBy": null,
				"location": {
					"id": 1,
					"locationName": "Location A",
					"fullAddress": "Sirajganj, enayetpur, kyau, building - 312",
					"length": 10.0,
					"width": 10.0,
					"note": "Beside the door\r\n",
					"available": false
				},
				"plantDate": "2023-12-29T18:00:00.000+00:00",
				"maturityDate": "2023-12-30T18:00:00.000+00:00",
				"lightDuration": 8,
				"waterPH": 5.5,
				"temperatureC": 25.0,
				"humidity": 8.0,
				"minerals": [
					{
						"id": 1,
						"mineralName": "Nitrogen",
						"mineralUnit": "gram",
						"mineralAmount": 1.0
					},
					{
						"id": 2,
						"mineralName": "Oxygen",
						"mineralUnit": "gram",
						"mineralAmount": 3.0
					},
					{
						"id": 3,
						"mineralName": "Iron",
						"mineralUnit": "gram",
						"mineralAmount": 5.0
					}
				],
				"addedEnvironmentBy": null
			},
			"message": "Error in temperature. Actual value is: 10.0 The value should be within 10.4 and 9.6",
			"notificationType": "INVALID_TEMPERATURE_ERROR",
			"status": "UNREAD",
			"timestamp": "2024-01-09T13:17:18.000+00:00"
		},
		{
			"id": 62,
			"receiver": {
				"id": 4,
				"firstName": "Akash",
				"lastName": "Debnath",
				"phone": "01303544534",
				"email": "akash@gmail.com",
				"image": "14c2da08ef49c793a931b895af27c6e5b55b9640_.jpg",
				"password": "$2a$10$rqczeQ7OfgDbG8Glqa90eO80GbnylTVpM3EWfPTSTbFwjVqcdragO",
				"remark": null,
				"role": "User",
				"addedBy": {
					"id": 1,
					"firstName": "Admin",
					"lastName": "Admin",
					"phone": null,
					"email": "admin@gmail.com",
					"image": "AdminImage.jpg",
					"password": "$2a$10$KhhFWSgHW2Y/q1NiEteeIefz2U5ct3Y5qvVAZBFjIjXWumnBRYqCm",
					"remark": null,
					"role": "Admin",
					"addedBy": null
				}
			},
			"sender": null,
			"environment": {
				"id": 1,
				"plantName": "Wheat",
				"ownedBy": null,
				"location": {
					"id": 1,
					"locationName": "Location A",
					"fullAddress": "Sirajganj, enayetpur, kyau, building - 312",
					"length": 10.0,
					"width": 10.0,
					"note": "Beside the door\r\n",
					"available": false
				},
				"plantDate": "2023-12-29T18:00:00.000+00:00",
				"maturityDate": "2023-12-30T18:00:00.000+00:00",
				"lightDuration": 8,
				"waterPH": 5.5,
				"temperatureC": 25.0,
				"humidity": 8.0,
				"minerals": [
					{
						"id": 1,
						"mineralName": "Nitrogen",
						"mineralUnit": "gram",
						"mineralAmount": 1.0
					},
					{
						"id": 2,
						"mineralName": "Oxygen",
						"mineralUnit": "gram",
						"mineralAmount": 3.0
					},
					{
						"id": 3,
						"mineralName": "Iron",
						"mineralUnit": "gram",
						"mineralAmount": 5.0
					}
				],
				"addedEnvironmentBy": null
			},
			"message": "Error in water pH. Actual value is: 5.0 The value should be within 5.2 and 4.8",
			"notificationType": "INVALID_WATER_pH_ERROR",
			"status": "UNREAD",
			"timestamp": "2024-01-09T13:17:18.000+00:00"
		},
		{
			"id": 61,
			"receiver": {
				"id": 4,
				"firstName": "Akash",
				"lastName": "Debnath",
				"phone": "01303544534",
				"email": "akash@gmail.com",
				"image": "14c2da08ef49c793a931b895af27c6e5b55b9640_.jpg",
				"password": "$2a$10$rqczeQ7OfgDbG8Glqa90eO80GbnylTVpM3EWfPTSTbFwjVqcdragO",
				"remark": null,
				"role": "User",
				"addedBy": {
					"id": 1,
					"firstName": "Admin",
					"lastName": "Admin",
					"phone": null,
					"email": "admin@gmail.com",
					"image": "AdminImage.jpg",
					"password": "$2a$10$KhhFWSgHW2Y/q1NiEteeIefz2U5ct3Y5qvVAZBFjIjXWumnBRYqCm",
					"remark": null,
					"role": "Admin",
					"addedBy": null
				}
			},
			"sender": null,
			"environment": {
				"id": 1,
				"plantName": "Wheat",
				"ownedBy": null,
				"location": {
					"id": 1,
					"locationName": "Location A",
					"fullAddress": "Sirajganj, enayetpur, kyau, building - 312",
					"length": 10.0,
					"width": 10.0,
					"note": "Beside the door\r\n",
					"available": false
				},
				"plantDate": "2023-12-29T18:00:00.000+00:00",
				"maturityDate": "2023-12-30T18:00:00.000+00:00",
				"lightDuration": 8,
				"waterPH": 5.5,
				"temperatureC": 25.0,
				"humidity": 8.0,
				"minerals": [
					{
						"id": 1,
						"mineralName": "Nitrogen",
						"mineralUnit": "gram",
						"mineralAmount": 1.0
					},
					{
						"id": 2,
						"mineralName": "Oxygen",
						"mineralUnit": "gram",
						"mineralAmount": 3.0
					},
					{
						"id": 3,
						"mineralName": "Iron",
						"mineralUnit": "gram",
						"mineralAmount": 5.0
					}
				],
				"addedEnvironmentBy": null
			},
			"message": "Error in humidity. Actual value is: 2.0 The value should be within 2.08 and 1.92",
			"notificationType": "INVALID_HUMIDITY_ERROR",
			"status": "UNREAD",
			"timestamp": "2024-01-09T13:17:18.000+00:00"
		},
		{
			"id": 60,
			"receiver": {
				"id": 4,
				"firstName": "Akash",
				"lastName": "Debnath",
				"phone": "01303544534",
				"email": "akash@gmail.com",
				"image": "14c2da08ef49c793a931b895af27c6e5b55b9640_.jpg",
				"password": "$2a$10$rqczeQ7OfgDbG8Glqa90eO80GbnylTVpM3EWfPTSTbFwjVqcdragO",
				"remark": null,
				"role": "User",
				"addedBy": {
					"id": 1,
					"firstName": "Admin",
					"lastName": "Admin",
					"phone": null,
					"email": "admin@gmail.com",
					"image": "AdminImage.jpg",
					"password": "$2a$10$KhhFWSgHW2Y/q1NiEteeIefz2U5ct3Y5qvVAZBFjIjXWumnBRYqCm",
					"remark": null,
					"role": "Admin",
					"addedBy": null
				}
			},
			"sender": null,
			"environment": {
				"id": 4,
				"plantName": "Wheat",
				"ownedBy": null,
				"location": {
					"id": 1,
					"locationName": "Location A",
					"fullAddress": "Sirajganj, enayetpur, kyau, building - 312",
					"length": 10.0,
					"width": 10.0,
					"note": "Beside the door\r\n",
					"available": false
				},
				"plantDate": "2023-12-21T18:00:00.000+00:00",
				"maturityDate": "2023-12-22T18:00:00.000+00:00",
				"lightDuration": 8,
				"waterPH": 5.5,
				"temperatureC": 24.0,
				"humidity": 12.0,
				"minerals": [
					{
						"id": 8,
						"mineralName": "Nitrogen",
						"mineralUnit": "gram",
						"mineralAmount": 12.0
					},
					{
						"id": 9,
						"mineralName": "Oxygen",
						"mineralUnit": "gram",
						"mineralAmount": 14.0
					}
				],
				"addedEnvironmentBy": null
			},
			"message": "Error in water pH. Actual value is: 4.954243138105615 The value should be within 5.15241286362984 and 4.75607341258139",
			"notificationType": "INVALID_WATER_pH_ERROR",
			"status": "UNREAD",
			"timestamp": "2024-01-09T13:05:09.000+00:00"
		},
		{
			"id": 59,
			"receiver": {
				"id": 4,
				"firstName": "Akash",
				"lastName": "Debnath",
				"phone": "01303544534",
				"email": "akash@gmail.com",
				"image": "14c2da08ef49c793a931b895af27c6e5b55b9640_.jpg",
				"password": "$2a$10$rqczeQ7OfgDbG8Glqa90eO80GbnylTVpM3EWfPTSTbFwjVqcdragO",
				"remark": null,
				"role": "User",
				"addedBy": {
					"id": 1,
					"firstName": "Admin",
					"lastName": "Admin",
					"phone": null,
					"email": "admin@gmail.com",
					"image": "AdminImage.jpg",
					"password": "$2a$10$KhhFWSgHW2Y/q1NiEteeIefz2U5ct3Y5qvVAZBFjIjXWumnBRYqCm",
					"remark": null,
					"role": "Admin",
					"addedBy": null
				}
			},
			"sender": null,
			"environment": {
				"id": 4,
				"plantName": "Wheat",
				"ownedBy": null,
				"location": {
					"id": 1,
					"locationName": "Location A",
					"fullAddress": "Sirajganj, enayetpur, kyau, building - 312",
					"length": 10.0,
					"width": 10.0,
					"note": "Beside the door\r\n",
					"available": false
				},
				"plantDate": "2023-12-21T18:00:00.000+00:00",
				"maturityDate": "2023-12-22T18:00:00.000+00:00",
				"lightDuration": 8,
				"waterPH": 5.5,
				"temperatureC": 24.0,
				"humidity": 12.0,
				"minerals": [
					{
						"id": 8,
						"mineralName": "Nitrogen",
						"mineralUnit": "gram",
						"mineralAmount": 12.0
					},
					{
						"id": 9,
						"mineralName": "Oxygen",
						"mineralUnit": "gram",
						"mineralAmount": 14.0
					}
				],
				"addedEnvironmentBy": null
			},
			"message": "Error in Nitrogen. Actual value is: 11.27805402906868 The value should be within 11.729176190231428 and 10.826931867905934",
			"notificationType": "INVALID_MINERAL_ERROR",
			"status": "UNREAD",
			"timestamp": "2024-01-09T13:05:09.000+00:00"
		},
		{
			"id": 58,
			"receiver": {
				"id": 4,
				"firstName": "Akash",
				"lastName": "Debnath",
				"phone": "01303544534",
				"email": "akash@gmail.com",
				"image": "14c2da08ef49c793a931b895af27c6e5b55b9640_.jpg",
				"password": "$2a$10$rqczeQ7OfgDbG8Glqa90eO80GbnylTVpM3EWfPTSTbFwjVqcdragO",
				"remark": null,
				"role": "User",
				"addedBy": {
					"id": 1,
					"firstName": "Admin",
					"lastName": "Admin",
					"phone": null,
					"email": "admin@gmail.com",
					"image": "AdminImage.jpg",
					"password": "$2a$10$KhhFWSgHW2Y/q1NiEteeIefz2U5ct3Y5qvVAZBFjIjXWumnBRYqCm",
					"remark": null,
					"role": "Admin",
					"addedBy": null
				}
			},
			"sender": null,
			"environment": {
				"id": 4,
				"plantName": "Wheat",
				"ownedBy": null,
				"location": {
					"id": 1,
					"locationName": "Location A",
					"fullAddress": "Sirajganj, enayetpur, kyau, building - 312",
					"length": 10.0,
					"width": 10.0,
					"note": "Beside the door\r\n",
					"available": false
				},
				"plantDate": "2023-12-21T18:00:00.000+00:00",
				"maturityDate": "2023-12-22T18:00:00.000+00:00",
				"lightDuration": 8,
				"waterPH": 5.5,
				"temperatureC": 24.0,
				"humidity": 12.0,
				"minerals": [
					{
						"id": 8,
						"mineralName": "Nitrogen",
						"mineralUnit": "gram",
						"mineralAmount": 12.0
					},
					{
						"id": 9,
						"mineralName": "Oxygen",
						"mineralUnit": "gram",
						"mineralAmount": 14.0
					}
				],
				"addedEnvironmentBy": null
			},
			"message": "Error in temperature. Actual value is: 22.46578493665273 The value should be within 23.36441633411884 and 21.567153539186624",
			"notificationType": "INVALID_TEMPERATURE_ERROR",
			"status": "UNREAD",
			"timestamp": "2024-01-09T13:05:09.000+00:00"
		},
		{
			"id": 57,
			"receiver": {
				"id": 4,
				"firstName": "Akash",
				"lastName": "Debnath",
				"phone": "01303544534",
				"email": "akash@gmail.com",
				"image": "14c2da08ef49c793a931b895af27c6e5b55b9640_.jpg",
				"password": "$2a$10$rqczeQ7OfgDbG8Glqa90eO80GbnylTVpM3EWfPTSTbFwjVqcdragO",
				"remark": null,
				"role": "User",
				"addedBy": {
					"id": 1,
					"firstName": "Admin",
					"lastName": "Admin",
					"phone": null,
					"email": "admin@gmail.com",
					"image": "AdminImage.jpg",
					"password": "$2a$10$KhhFWSgHW2Y/q1NiEteeIefz2U5ct3Y5qvVAZBFjIjXWumnBRYqCm",
					"remark": null,
					"role": "Admin",
					"addedBy": null
				}
			},
			"sender": null,
			"environment": {
				"id": 4,
				"plantName": "Wheat",
				"ownedBy": null,
				"location": {
					"id": 1,
					"locationName": "Location A",
					"fullAddress": "Sirajganj, enayetpur, kyau, building - 312",
					"length": 10.0,
					"width": 10.0,
					"note": "Beside the door\r\n",
					"available": false
				},
				"plantDate": "2023-12-21T18:00:00.000+00:00",
				"maturityDate": "2023-12-22T18:00:00.000+00:00",
				"lightDuration": 8,
				"waterPH": 5.5,
				"temperatureC": 24.0,
				"humidity": 12.0,
				"minerals": [
					{
						"id": 8,
						"mineralName": "Nitrogen",
						"mineralUnit": "gram",
						"mineralAmount": 12.0
					},
					{
						"id": 9,
						"mineralName": "Oxygen",
						"mineralUnit": "gram",
						"mineralAmount": 14.0
					}
				],
				"addedEnvironmentBy": null
			},
			"message": "Error in humidity. Actual value is: 13.195679659552003 The value should be within 13.723506845934082 and 12.667852473169923",
			"notificationType": "INVALID_HUMIDITY_ERROR",
			"status": "UNREAD",
			"timestamp": "2024-01-09T13:05:09.000+00:00"
		},
		{
			"id": 56,
			"receiver": {
				"id": 4,
				"firstName": "Akash",
				"lastName": "Debnath",
				"phone": "01303544534",
				"email": "akash@gmail.com",
				"image": "14c2da08ef49c793a931b895af27c6e5b55b9640_.jpg",
				"password": "$2a$10$rqczeQ7OfgDbG8Glqa90eO80GbnylTVpM3EWfPTSTbFwjVqcdragO",
				"remark": null,
				"role": "User",
				"addedBy": {
					"id": 1,
					"firstName": "Admin",
					"lastName": "Admin",
					"phone": null,
					"email": "admin@gmail.com",
					"image": "AdminImage.jpg",
					"password": "$2a$10$KhhFWSgHW2Y/q1NiEteeIefz2U5ct3Y5qvVAZBFjIjXWumnBRYqCm",
					"remark": null,
					"role": "Admin",
					"addedBy": null
				}
			},
			"sender": null,
			"environment": {
				"id": 3,
				"plantName": "Paddy",
				"ownedBy": null,
				"location": {
					"id": 1,
					"locationName": "Location A",
					"fullAddress": "Sirajganj, enayetpur, kyau, building - 312",
					"length": 10.0,
					"width": 10.0,
					"note": "Beside the door\r\n",
					"available": false
				},
				"plantDate": "2023-12-28T18:00:00.000+00:00",
				"maturityDate": "2023-12-29T18:00:00.000+00:00",
				"lightDuration": 7,
				"waterPH": 9.0,
				"temperatureC": 60.0,
				"humidity": 9.0,
				"minerals": [
					{
						"id": 4,
						"mineralName": "Nitrogen",
						"mineralUnit": "gram",
						"mineralAmount": 1.0
					},
					{
						"id": 5,
						"mineralName": "Oxygen",
						"mineralUnit": "gram",
						"mineralAmount": 5.0
					}
				],
				"addedEnvironmentBy": null
			},
			"message": "Error in water pH. Actual value is: 9.775594245623662 The value should be within 10.166618015448607 and 9.384570475798716",
			"notificationType": "INVALID_WATER_pH_ERROR",
			"status": "UNREAD",
			"timestamp": "2024-01-09T13:05:09.000+00:00"
		},
		{
			"id": 55,
			"receiver": {
				"id": 4,
				"firstName": "Akash",
				"lastName": "Debnath",
				"phone": "01303544534",
				"email": "akash@gmail.com",
				"image": "14c2da08ef49c793a931b895af27c6e5b55b9640_.jpg",
				"password": "$2a$10$rqczeQ7OfgDbG8Glqa90eO80GbnylTVpM3EWfPTSTbFwjVqcdragO",
				"remark": null,
				"role": "User",
				"addedBy": {
					"id": 1,
					"firstName": "Admin",
					"lastName": "Admin",
					"phone": null,
					"email": "admin@gmail.com",
					"image": "AdminImage.jpg",
					"password": "$2a$10$KhhFWSgHW2Y/q1NiEteeIefz2U5ct3Y5qvVAZBFjIjXWumnBRYqCm",
					"remark": null,
					"role": "Admin",
					"addedBy": null
				}
			},
			"sender": null,
			"environment": {
				"id": 3,
				"plantName": "Paddy",
				"ownedBy": null,
				"location": {
					"id": 1,
					"locationName": "Location A",
					"fullAddress": "Sirajganj, enayetpur, kyau, building - 312",
					"length": 10.0,
					"width": 10.0,
					"note": "Beside the door\r\n",
					"available": false
				},
				"plantDate": "2023-12-28T18:00:00.000+00:00",
				"maturityDate": "2023-12-29T18:00:00.000+00:00",
				"lightDuration": 7,
				"waterPH": 9.0,
				"temperatureC": 60.0,
				"humidity": 9.0,
				"minerals": [
					{
						"id": 4,
						"mineralName": "Nitrogen",
						"mineralUnit": "gram",
						"mineralAmount": 1.0
					},
					{
						"id": 5,
						"mineralName": "Oxygen",
						"mineralUnit": "gram",
						"mineralAmount": 5.0
					}
				],
				"addedEnvironmentBy": null
			},
			"message": "Error in Nitrogen. Actual value is: 0.938469077104179 The value should be within 0.9760078401883462 and 0.9009303140200119",
			"notificationType": "INVALID_MINERAL_ERROR",
			"status": "UNREAD",
			"timestamp": "2024-01-09T13:05:09.000+00:00"
		}
	],
	"pageNumber": 0,
	"pageSize": 10,
	"totalElements": 12,
	"totalPages": 2,
	"numberOfElements": 10,
	"empty": false,
	"first": true,
	"last": false
}